Example using PTAGIS queries • space4time
…
Note that here, the name of the RST in the EF Potlatch River was
POTREF at some points in time.

Next, we can check what age range to include for each site:

# returns a data frame of the ages of known age fish at different observations
ch_df %>%
  dplyr::left_join(aux_age_df,by = "id") %>%  # merge age data with capture history
  dplyr::filter(!is.na(ageclass)) %>% # only check observations of known age fish
  dplyr::mutate(Age_at_obs = ageclass + (time - obs_time)) %>% # calculate known age
  dplyr::group_by(site,Age_at_obs) %>% # group by site and age at site
  dplyr::summarise(N = dplyr::n()) # summarize number of observations
#> # A tibble: 32 × 3
#> # Groups:   site [19]
#>    site   Age_at_obs     N
#>    <chr>       <dbl> <int>
#>  1 BCC             2     2
#>  2 BO2             3     1
#>  3 BO4             3     1
#>  4 EFPTRP          1    76
#>  5 EFPTRP          2    59
#>  6 EFPTRP          3     7
#>  7 GOA             3     1
#>  8 GOJ             1     3
#>  9 GOJ             2    25
#> 10 GOJ             3     3
#> # ℹ 22 more rows
…
